Clasificación de CIIU Revisión 3 a CIIU Revisión 4 adaptada por el INE. — to_ciiu4. • srvyuRu
…
    Value

    Devuelve un tibble.

    Examples

load_base.(
  "2007-2009-ser"
) %>%
  to_ciiu4.(
    ClaseAct,
    "INE"
  )
#> Cargando datos historicos 2007-2009-ser
#> # A tidytable: 1,022 x 424
#>      INE ClaseAct Estrato Expansor IG_3_1 IG_3_1_8      IG_3_2_1 IG_3_2_2 IG_3_3
#>    <dbl>    <dbl>   <dbl>    <dbl>  <dbl> <chr>            <dbl> <chr>     <dbl>
#>  1   214     7310       2    11.0       3 ""                   0 NA            2
#>  2   632     5512       2     2.94      3 ""                   0 NA            2
#>  3  1036     5222       5     1         3 ""                   0 NA            2
#>  4  1064     5110       5     1.44      5 ""                 100 40245         2
#>  5  1238     7710       2     5.59      3 ""                   0 NA            2
#>  6  1744     4922       1    21.9       5 ""                   0 NA            2
#>  7  1893     6920       1     6.93      8 "Profesional~        0 NA            2
#>  8  2153     6311       2     2.81      2 ""                   0 NA            2
#>  9  2222     5229       5     1         2 ""                   0 NA            2
#> 10  2308     7210       2     1.01      2 ""                   0 NA            2
#> # ... with 1,012 more rows, and 415 more variables: IG_3_4 <dbl>,
#> #   IG_3_5_1 <dbl>, IG_3_5_2_2 <dbl>, IG_3_5_3_2 <dbl>, IG_3_5_3_3 <dbl>,
#> #   IG_3_5_3_4 <dbl>, IG_3_5_3_5 <dbl>, IG_3_5_3_6 <dbl>, IG_3_5_3_7 <dbl>,
#> #   IG_3_5_3_8 <dbl>, IG_3_5_3_9 <dbl>, IG_3_5_3_10 <dbl>, IG_3_5_3_11 <dbl>,
#> #   IG_3_5_3_12 <dbl>, IG_3_5_3_13 <dbl>, IG_3_5_3_14 <dbl>, IG_3_5_3_15 <dbl>,
#> #   IG_3_5_3_16 <dbl>, IG_3_5_3_17 <dbl>, IG_3_5_3_18 <dbl>, IG_3_5_3_19 <dbl>,
#> #   IG_3_5_5 <dbl>, IG_4_1 <dbl>, IG_4_2 <dbl>, IG_4_3_1 <dbl>, ...
…
